[api-updater (non-obsolete-error-filter)] 10-03-2022 13:46:21 : Starting C:/Program Files/Unity/Hub/Editor/2020.3.3f1/Editor/Data/Tools/ScriptUpdater/APIUpdater.NonObsoleteApiUpdaterDetector.exe
[api-updater (non-obsolete-error-filter)] 
----------------------------------
jit/startup time      : 51.0458ms
moved types parse time: 33ms
candidates parse time : 0ms
C# parse time         : 118ms
candidates check time : 39ms
console write time    : 0ms

