%YAML 1.1
%TAG !u! tag:unity3d.com,2011:
--- !u!114 &11400000
MonoBehaviour:
  m_ObjectHideFlags: 0
  m_CorrespondingSourceObject: {fileID: 0}
  m_PrefabInstance: {fileID: 0}
  m_PrefabAsset: {fileID: 0}
  m_GameObject: {fileID: 0}
  m_Enabled: 1
  m_EditorHideFlags: 0
  m_Script: {fileID: -1877329156, guid: a0c2421e747d447429468a9d32f003df, type: 3}
  m_Name: _CentralIdsDataSO
  m_EditorClassIdentifier: 
  idsData:
  - _systemName: Cars
    sourceSos: {fileID: 11400000, guid: 9d61c833599e0e045b5469abea1e1391, type: 2}
