%YAML 1.1
%TAG !u! tag:unity3d.com,2011:
--- !u!114 &11400000
MonoBehaviour:
  m_ObjectHideFlags: 0
  m_CorrespondingSourceObject: {fileID: 0}
  m_PrefabInstance: {fileID: 0}
  m_PrefabAsset: {fileID: 0}
  m_GameObject: {fileID: 0}
  m_Enabled: 1
  m_EditorHideFlags: 0
  m_Script: {fileID: -1859464208, guid: a0c2421e747d447429468a9d32f003df, type: 3}
  m_Name: EditorIdDataContainer
  m_EditorClassIdentifier: 
  ids:
  - stringIdVal: Ferrai
    intValue: -405084196
  - stringIdVal: Lamborghini
    intValue: -795861070
  myRuntimeIdContainers:
  - {fileID: 11400000, guid: 8ecc70f108736f043b0ffa23ea456207, type: 2}
